6209 418201 449
61364 35831 340
790313 278360 509
489024 100687 449
465022 186623 449
34956 475455 449
299302 886597 525
212932 224928 386
360732 991594 525
447301 135293 449
943724 63342 525
923645 476450 525
306373 406395 441
544027 206069 470
47201 245476 443
598745 722845 509
845633 325388 525
436319 403900 449
449520 238470 449
368396 314245 441
903283 61996 525
47577 357813 443
441803 816037 509
928289 876022 476
223517 23934 386
680627 896785 525
372115 628021 509
727657 561831 509
633038 646188 416
446210 127092 449
187659 794319 509
664792 344266 509
333891 135984 443
259378 415497 449
680613 361726 509
336859 474911 449
425279 14985 449
249424 442659 449
777607 610408 509
317728 889735 525
284441 815821 509
270904 471907 449
703847 117284 509
979589 486195 525
470986 189980 449
978525 98343 525
443310 730602 509
4110 46838 324
87159 50451 351
641749 371476 509
605994 138620 470
606272 41228 470
393354 47136 443
148803 787223 509
762621 258418 509
273599 769851 509
667333 769661 504
815566 155907 509
987281 240929 525
119786 753563 509
447446 210972 449
774404 169264 509
548941 729566 509
96495 389550 443
973707 72506 525
355542 400070 436
371791 35010 443
665235 46588 509
562027 916000 525
617036 662100 509
728635 694992 504
664802 785349 504
889260 375189 525
627387 965266 525
835019 451361 509
735970 663642 504
594001 994779 525
197773 11216 383
812779 691815 504
533899 180689 470
607394 925468 525
945352 569849 525
927870 261988 525
570309 735140 509
184938 553978 470
169056 537372 470
382985 561310 470
373696 722644 509
845609 397792 525
129965 654148 509
143865 32963 375
823596 430376 509
694596 59040 509
534779 409465 470
206353 639954 509
873211 359282 525
872308 123039 525
573236 675514 509
13644 734443 509
998278 612205 525
514763 169079 470
192678 549213 470
464790 293624 449
177521 594949 470
768328 492258 509
901439 832045 525
983670 490358 525
235256 964764 525
75651 957181 525
966562 212518 525
958962 420925 525
873008 848046 432
694125 85612 509
812574 915678 525
222422 697691 509
580324 696260 509
66592 270844 443
379584 975224 525
257485 330146 407
746341 735643 424
297784 968044 525
863247 145548 525
305000 523880 470
102776 34845 351
97559 647635 509
762449 765207 375
202185 532772 470
740133 941943 525
726420 540882 509
783015 807683 468
15095 893595 525
287225 68432 443
460312 765730 509
559556 574981 421
732919 907235 525
32969 567891 470
982516 811808 525
477876 909680 525
811150 736398 468
369923 485141 449
175007 580103 470
52588 668695 509
824175 496150 509
238196 647490 509
350110 253546 441
449033 124473 449
943265 846039 507
984071 726280 525
335571 852182 525
